%YAML 1.1
%TAG !u! tag:unity3d.com,2011:
--- !u!114 &11400000
MonoBehaviour:
  m_ObjectHideFlags: 0
  m_CorrespondingSourceObject: {fileID: 0}
  m_PrefabInternal: {fileID: 0}
  m_GameObject: {fileID: 0}
  m_Enabled: 1
  m_EditorHideFlags: 0
  m_Script: {fileID: 11500000, guid: 4a02d91cff2db417382ff6229ecf0db5, type: 3}
  m_Name: BasicPiece
  m_EditorClassIdentifier: 
  PieceType: 1
  PieceSprites: []
  MaxHealth: 1
