%YAML 1.1
%TAG !u! tag:unity3d.com,2011:
--- !u!114 &11400000
MonoBehaviour:
  m_ObjectHideFlags: 0
  m_CorrespondingSourceObject: {fileID: 0}
  m_PrefabInternal: {fileID: 0}
  m_GameObject: {fileID: 0}
  m_Enabled: 1
  m_EditorHideFlags: 0
  m_Script: {fileID: 11500000, guid: a1df6013fd0634190812e79de5150b71, type: 3}
  m_Name: EmptyPiece
  m_EditorClassIdentifier: 
  Identifier: 0
  Health: 0
  PieceSprites:
  - {fileID: 21300000, guid: fdc2627b451ef49829dbaccb35059ef7, type: 3}
