%YAML 1.1
%TAG !u! tag:unity3d.com,2011:
--- !u!114 &11400000
MonoBehaviour:
  m_ObjectHideFlags: 0
  m_CorrespondingSourceObject: {fileID: 0}
  m_PrefabInstance: {fileID: 0}
  m_PrefabAsset: {fileID: 0}
  m_GameObject: {fileID: 0}
  m_Enabled: 1
  m_EditorHideFlags: 0
  m_Script: {fileID: 11500000, guid: e3ea247a5263e47c592dca0bec155589, type: 3}
  m_Name: PlasmaBallPieceYellow
  m_EditorClassIdentifier: 
  MaxHealth: 1
  PieceType: 21
  PieceSprites:
  - {fileID: 21300000, guid: 3ce5ccacc5dc6451cabb1db52aefca58, type: 3}
  SpecialPrefab: {fileID: 1403563500412246, guid: 006796bf932c8dd47a119e88feb25858,
    type: 3}
  CombinationDuration: 1
  _combinationCurve:
    serializedVersion: 2
    m_Curve:
    - serializedVersion: 3
      time: 0
      value: 0
      inSlope: 0
      outSlope: 0
      tangentMode: 0
      weightedMode: 0
      inWeight: 0
      outWeight: 0
    - serializedVersion: 3
      time: 1
      value: 1
      inSlope: 0
      outSlope: 0
      tangentMode: 0
      weightedMode: 0
      inWeight: 0
      outWeight: 0
    m_PreInfinity: 2
    m_PostInfinity: 2
    m_RotationOrder: 4
  PlasmaTargetPiece: 9
