%YAML 1.1
%TAG !u! tag:unity3d.com,2011:
--- !u!114 &11400000
MonoBehaviour:
  m_ObjectHideFlags: 0
  m_CorrespondingSourceObject: {fileID: 0}
  m_PrefabInstance: {fileID: 0}
  m_PrefabAsset: {fileID: 0}
  m_GameObject: {fileID: 0}
  m_Enabled: 1
  m_EditorHideFlags: 0
  m_Script: {fileID: 11500000, guid: 4a02d91cff2db417382ff6229ecf0db5, type: 3}
  m_Name: RedPiece
  m_EditorClassIdentifier: 
  MaxHealth: 1
  PieceType: 7
  PieceSprites:
  - {fileID: 21300000, guid: ef7b15d3750e7405bb9fd527b4606246, type: 3}
  - {fileID: 21300000, guid: a5a6e4803314d4663bf4490c20138e05, type: 3}
  - {fileID: 21300000, guid: 6d5537dd83e044661b3b51ac74881771, type: 3}
  - {fileID: 21300000, guid: 5329e81f2ed4246579910667d698c5d9, type: 3}
